%YAML 1.1
%TAG !u! tag:unity3d.com,2011:
--- !u!74 &7400000
AnimationClip:
  m_ObjectHideFlags: 0
  m_PrefabParentObject: {fileID: 0}
  m_PrefabInternal: {fileID: 0}
  m_Name: CamRot
  serializedVersion: 4
  m_AnimationType: 2
  m_Compressed: 0
  m_UseHighQualityCurve: 1
  m_RotationCurves:
  - curve:
      serializedVersion: 2
      m_Curve:
      - time: 0
        value: {x: -0, y: -.791945696, z: -0, w: -.610591531}
        inSlope: {x: 0, y: .49898383, z: 0, w: -.638229787}
        outSlope: {x: 0, y: .49898383, z: 0, w: -.638229787}
        tangentMode: 0
      - time: .0166666675
        value: {x: -0, y: -.783629298, z: -0, w: -.621228695}
        inSlope: {x: 0, y: .502882004, z: 0, w: -.634356678}
        outSlope: {x: 0, y: .502882004, z: 0, w: -.634356678}
        tangentMode: 0
      - time: .0333333351
        value: {x: -0, y: -.775182962, z: -0, w: -.631736755}
        inSlope: {x: 0, y: .510633588, z: 0, w: -.626594305}
        outSlope: {x: 0, y: .510633588, z: 0, w: -.626594305}
        tangentMode: 0
      - time: .0500000045
        value: {x: -0, y: -.766608179, z: -0, w: -.642115176}
        inSlope: {x: 0, y: .518293977, z: 0, w: -.618792772}
        outSlope: {x: 0, y: .518293977, z: 0, w: -.618792772}
        tangentMode: 0
      - time: .0666666701
        value: {x: -0, y: -.757906497, z: -0, w: -.652363181}
        inSlope: {x: 0, y: .525859654, z: 0, w: -.610948265}
        outSlope: {x: 0, y: .525859654, z: 0, w: -.610948265}
        tangentMode: 0
      - time: .0833333358
        value: {x: -0, y: -.749079525, z: -0, w: -.662480116}
        inSlope: {x: 0, y: .533335865, z: 0, w: -.603064358}
        outSlope: {x: 0, y: .533335865, z: 0, w: -.603064358}
        tangentMode: 0
      - time: .100000001
        value: {x: -0, y: -.740128636, z: -0, w: -.672465324}
        inSlope: {x: 0, y: .540726244, z: 0, w: -.595141113}
        outSlope: {x: 0, y: .540726244, z: 0, w: -.595141113}
        tangentMode: 0
      - time: .116666667
        value: {x: -0, y: -.731055319, z: -0, w: -.682318151}
        inSlope: {x: 0, y: .54802525, z: 0, w: -.587180138}
        outSlope: {x: 0, y: .54802525, z: 0, w: -.587180138}
        tangentMode: 0
      - time: .13333334
        value: {x: -0, y: -.721861124, z: -0, w: -.692038}
        inSlope: {x: 0, y: .555240393, z: 0, w: -.579178214}
        outSlope: {x: 0, y: .555240393, z: 0, w: -.579178214}
        tangentMode: 0
      - time: .150000006
        value: {x: -0, y: -.712547302, z: -0, w: -.701624095}
        inSlope: {x: 0, y: .562371671, z: 0, w: -.571133554}
        outSlope: {x: 0, y: .562371671, z: 0, w: -.571133554}
        tangentMode: 0
      - time: .166666672
        value: {x: -0, y: -.703115404, z: -0, w: -.711075783}
        inSlope: {x: 0, y: .569418728, z: 0, w: -.563049376}
        outSlope: {x: 0, y: .569418728, z: 0, w: -.563049376}
        tangentMode: 0
      - time: .183333337
        value: {x: -0, y: -.69356668, z: -0, w: -.720392406}
        inSlope: {x: 0, y: .576387107, z: 0, w: -.554927647}
        outSlope: {x: 0, y: .576387107, z: 0, w: -.554927647}
        tangentMode: 0
      - time: .200000003
        value: {x: -0, y: -.683902502, z: -0, w: -.729573369}
        inSlope: {x: 0, y: .583273232, z: 0, w: -.546766579}
        outSlope: {x: 0, y: .583273232, z: 0, w: -.546766579}
        tangentMode: 0
      - time: .216666669
        value: {x: -0, y: -.674124241, z: -0, w: -.738617957}
        inSlope: {x: 0, y: .59007889, z: 0, w: -.538562596}
        outSlope: {x: 0, y: .59007889, z: 0, w: -.538562596}
        tangentMode: 0
      - time: .233333334
        value: {x: -0, y: -.664233208, z: -0, w: -.747525454}
        inSlope: {x: 0, y: .596809447, z: 0, w: -.530315697}
        outSlope: {x: 0, y: .596809447, z: 0, w: -.530315697}
        tangentMode: 0
      - time: .25
        value: {x: -0, y: -.654230595, z: -0, w: -.756295145}
        inSlope: {x: 0, y: .603462815, z: 0, w: -.522027433}
        outSlope: {x: 0, y: .603462815, z: 0, w: -.522027433}
        tangentMode: 0
      - time: .266666681
        value: {x: -0, y: -.644117773, z: -0, w: -.764926374}
        inSlope: {x: 0, y: .610041142, z: 0, w: -.513696253}
        outSlope: {x: 0, y: .610041142, z: 0, w: -.513696253}
        tangentMode: 0
      - time: .283333361
        value: {x: -0, y: -.633895874, z: -0, w: -.773418367}
        inSlope: {x: 0, y: .616548121, z: 0, w: -.505325973}
        outSlope: {x: 0, y: .616548121, z: 0, w: -.505325973}
        tangentMode: 0
      - time: .300000042
        value: {x: -0, y: -.623566151, z: -0, w: -.781770587}
        inSlope: {x: 0, y: .622976482, z: 0, w: -.496910989}
        outSlope: {x: 0, y: .622976482, z: 0, w: -.496910989}
        tangentMode: 0
      - time: .316666722
        value: {x: -0, y: -.613129973, z: -0, w: -.78998208}
        inSlope: {x: 0, y: .629331529, z: 0, w: -.488445938}
        outSlope: {x: 0, y: .629331529, z: 0, w: -.488445938}
        tangentMode: 0
      - time: .333333403
        value: {x: -0, y: -.602588415, z: -0, w: -.798052132}
        inSlope: {x: 0, y: .635620415, z: 0, w: -.479939759}
        outSlope: {x: 0, y: .635620415, z: 0, w: -.479939759}
        tangentMode: 0
      - time: .350000083
        value: {x: -0, y: -.591942608, z: -0, w: -.805980086}
        inSlope: {x: 0, y: .641837776, z: 0, w: -.471390694}
        outSlope: {x: 0, y: .641837776, z: 0, w: -.471390694}
        tangentMode: 0
      - time: .366666764
        value: {x: -0, y: -.581193805, z: -0, w: -.813765168}
        inSlope: {x: 0, y: .647981822, z: 0, w: -.46279332}
        outSlope: {x: 0, y: .647981822, z: 0, w: -.46279332}
        tangentMode: 0
      - time: .383333445
        value: {x: -0, y: -.570343196, z: -0, w: -.821406543}
        inSlope: {x: 0, y: .654059708, z: 0, w: -.454145879}
        outSlope: {x: 0, y: .654059708, z: 0, w: -.454145879}
        tangentMode: 0
      - time: .400000125
        value: {x: -0, y: -.559391797, z: -0, w: -.828903377}
        inSlope: {x: 0, y: .660069644, z: 0, w: -.445450187}
        outSlope: {x: 0, y: .660069644, z: 0, w: -.445450187}
        tangentMode: 0
      - time: .416666806
        value: {x: -0, y: -.548340857, z: -0, w: -.836254895}
        inSlope: {x: 0, y: .666009843, z: 0, w: -.436709762}
        outSlope: {x: 0, y: .666009843, z: 0, w: -.436709762}
        tangentMode: 0
      - time: .433333486
        value: {x: -0, y: -.537191451, z: -0, w: -.843460381}
        inSlope: {x: 0, y: .671883881, z: 0, w: -.427915692}
        outSlope: {x: 0, y: .671883881, z: 0, w: -.427915692}
        tangentMode: 0
      - time: .450000167
        value: {x: -0, y: -.52594471, z: -0, w: -.850518763}
        inSlope: {x: 0, y: .67768991, z: 0, w: -.419067979}
        outSlope: {x: 0, y: .67768991, z: 0, w: -.419067979}
        tangentMode: 0
      - time: .466666847
        value: {x: -0, y: -.514601767, z: -0, w: -.857429326}
        inSlope: {x: 0, y: .683429837, z: 0, w: -.410170197}
        outSlope: {x: 0, y: .683429837, z: 0, w: -.410170197}
        tangentMode: 0
      - time: .483333528
        value: {x: -0, y: -.503163695, z: -0, w: -.864191115}
        inSlope: {x: 0, y: .689103365, z: 0, w: -.401217371}
        outSlope: {x: 0, y: .689103365, z: 0, w: -.401217371}
        tangentMode: 0
      - time: .500000179
        value: {x: -0, y: -.491631657, z: -0, w: -.870803237}
        inSlope: {x: 0, y: .69471246, z: 0, w: -.392212629}
        outSlope: {x: 0, y: .69471246, z: 0, w: -.392212629}
        tangentMode: 0
      - time: .51666683
        value: {x: -0, y: -.480006635, z: -0, w: -.877264857}
        inSlope: {x: 0, y: .700255692, z: 0, w: -.383150339}
        outSlope: {x: 0, y: .700255692, z: 0, w: -.383150339}
        tangentMode: 0
      - time: .53333348
        value: {x: -0, y: -.468289822, z: -0, w: -.883574903}
        inSlope: {x: 0, y: .705731869, z: 0, w: -.374030828}
        outSlope: {x: 0, y: .705731869, z: 0, w: -.374030828}
        tangentMode: 0
      - time: .550000131
        value: {x: -0, y: -.456482261, z: -0, w: -.88973254}
        inSlope: {x: 0, y: .711144567, z: 0, w: -.364852309}
        outSlope: {x: 0, y: .711144567, z: 0, w: -.364852309}
        tangentMode: 0
      - time: .566666782
        value: {x: -0, y: -.444585025, z: -0, w: -.895736635}
        inSlope: {x: 0, y: .716490269, z: 0, w: -.355612993}
        outSlope: {x: 0, y: .716490269, z: 0, w: -.355612993}
        tangentMode: 0
      - time: .583333433
        value: {x: -0, y: -.432599276, z: -0, w: -.901586294}
        inSlope: {x: 0, y: .721770644, z: 0, w: -.346316427}
        outSlope: {x: 0, y: .721770644, z: 0, w: -.346316427}
        tangentMode: 0
      - time: .600000083
        value: {x: -0, y: -.420526028, z: -0, w: -.907280505}
        inSlope: {x: 0, y: .726987541, z: 0, w: -.336953729}
        outSlope: {x: 0, y: .726987541, z: 0, w: -.336953729}
        tangentMode: 0
      - time: .616666734
        value: {x: -0, y: -.408366382, z: -0, w: -.912818074}
        inSlope: {x: 0, y: .732137382, z: 0, w: -.327528417}
        outSlope: {x: 0, y: .732137382, z: 0, w: -.327528417}
        tangentMode: 0
      - time: .633333385
        value: {x: -0, y: -.396121472, z: -0, w: -.918198109}
        inSlope: {x: 0, y: .737220168, z: 0, w: -.31804055}
        outSlope: {x: 0, y: .737220168, z: 0, w: -.31804055}
        tangentMode: 0
      - time: .650000036
        value: {x: -0, y: -.3837924, z: -0, w: -.923419416}
        inSlope: {x: 0, y: .742237687, z: 0, w: -.308482945}
        outSlope: {x: 0, y: .742237687, z: 0, w: -.308482945}
        tangentMode: 0
      - time: .666666687
        value: {x: -0, y: -.37138024, z: -0, w: -.928480864}
        inSlope: {x: 0, y: .747188151, z: 0, w: -.298857391}
        outSlope: {x: 0, y: .747188151, z: 0, w: -.298857391}
        tangentMode: 0
      - time: .683333337
        value: {x: -0, y: -.358886153, z: -0, w: -.933381319}
        inSlope: {x: 0, y: .752069771, z: 0, w: -.289163858}
        outSlope: {x: 0, y: .752069771, z: 0, w: -.289163858}
        tangentMode: 0
      - time: .699999988
        value: {x: -0, y: -.346311271, z: -0, w: -.93811965}
        inSlope: {x: 0, y: .756885231, z: 0, w: -.279400617}
        outSlope: {x: 0, y: .756885231, z: 0, w: -.279400617}
        tangentMode: 0
      - time: .716666639
        value: {x: -0, y: -.333656669, z: -0, w: -.942694664}
        inSlope: {x: 0, y: .761631846, z: 0, w: -.269564033}
        outSlope: {x: 0, y: .761631846, z: 0, w: -.269564033}
        tangentMode: 0
      - time: .73333329
        value: {x: -0, y: -.320923567, z: -0, w: -.94710511}
        inSlope: {x: 0, y: .766306937, z: 0, w: -.259652376}
        outSlope: {x: 0, y: .766306937, z: 0, w: -.259652376}
        tangentMode: 0
      - time: .74999994
        value: {x: -0, y: -.308113128, z: -0, w: -.951349735}
        inSlope: {x: 0, y: .770913184, z: 0, w: -.249665618}
        outSlope: {x: 0, y: .770913184, z: 0, w: -.249665618}
        tangentMode: 0
      - time: .766666591
        value: {x: -0, y: -.295226485, z: -0, w: -.955427289}
        inSlope: {x: 0, y: .775448799, z: 0, w: -.239603758}
        outSlope: {x: 0, y: .775448799, z: 0, w: -.239603758}
        tangentMode: 0
      - time: .783333242
        value: {x: -0, y: -.282264858, z: -0, w: -.959336519}
        inSlope: {x: 0, y: .77991116, z: 0, w: -.22946319}
        outSlope: {x: 0, y: .77991116, z: 0, w: -.22946319}
        tangentMode: 0
      - time: .799999893
        value: {x: -0, y: -.269229472, z: -0, w: -.963076055}
        inSlope: {x: 0, y: .784300148, z: 0, w: -.219242185}
        outSlope: {x: 0, y: .784300148, z: 0, w: -.219242185}
        tangentMode: 0
      - time: .816666543
        value: {x: -0, y: -.256121546, z: -0, w: -.966644585}
        inSlope: {x: 0, y: .788614511, z: 0, w: -.208940715}
        outSlope: {x: 0, y: .788614511, z: 0, w: -.208940715}
        tangentMode: 0
      - time: .833333194
        value: {x: -0, y: -.242942348, z: -0, w: -.970040739}
        inSlope: {x: 0, y: .792853236, z: 0, w: -.198555171}
        outSlope: {x: 0, y: .792853236, z: 0, w: -.198555171}
        tangentMode: 0
      - time: .849999845
        value: {x: -0, y: -.22969313, z: -0, w: -.973263085}
        inSlope: {x: 0, y: .797015607, z: 0, w: -.188087404}
        outSlope: {x: 0, y: .797015607, z: 0, w: -.188087404}
        tangentMode: 0
      - time: .866666496
        value: {x: -0, y: -.216375187, z: -0, w: -.976310313}
        inSlope: {x: 0, y: .801099718, z: 0, w: -.177533805}
        outSlope: {x: 0, y: .801099718, z: 0, w: -.177533805}
        tangentMode: 0
      - time: .883333147
        value: {x: -0, y: -.202989832, z: -0, w: -.979180872}
        inSlope: {x: 0, y: .805102944, z: 0, w: -.166888982}
        outSlope: {x: 0, y: .805102944, z: 0, w: -.166888982}
        tangentMode: 0
      - time: .899999797
        value: {x: -0, y: -.189538449, z: -0, w: -.981873274}
        inSlope: {x: 0, y: .809023857, z: 0, w: -.156158358}
        outSlope: {x: 0, y: .809023857, z: 0, w: -.156158358}
        tangentMode: 0
      - time: .916666448
        value: {x: -0, y: -.176022395, z: -0, w: -.984386146}
        inSlope: {x: 0, y: .812861681, z: 0, w: -.145340115}
        outSlope: {x: 0, y: .812861681, z: 0, w: -.145340115}
        tangentMode: 0
      - time: .933333099
        value: {x: -0, y: -.162443087, z: -0, w: -.986717939}
        inSlope: {x: 0, y: .816614985, z: 0, w: -.134427071}
        outSlope: {x: 0, y: .816614985, z: 0, w: -.134427071}
        tangentMode: 0
      - time: .94999975
        value: {x: -0, y: -.148801923, z: -0, w: -.988867044}
        inSlope: {x: 0, y: .820281088, z: 0, w: -.123419285}
        outSlope: {x: 0, y: .820281088, z: 0, w: -.123419285}
        tangentMode: 0
      - time: .9666664
        value: {x: -0, y: -.135100409, z: -0, w: -.990831912}
        inSlope: {x: 0, y: .823857605, z: 0, w: -.112318501}
        outSlope: {x: 0, y: .823857605, z: 0, w: -.112318501}
        tangentMode: 0
      - time: .983333051
        value: {x: -0, y: -.121340029, z: -0, w: -.992610991}
        inSlope: {x: 0, y: .827343583, z: 0, w: -.101122953}
        outSlope: {x: 0, y: .827343583, z: 0, w: -.101122953}
        tangentMode: 0
      - time: .999999702
        value: {x: -0, y: -.107522316, z: -0, w: -.994202673}
        inSlope: {x: 0, y: .830735564, z: 0, w: -.089828901}
        outSlope: {x: 0, y: .830735564, z: 0, w: -.089828901}
        tangentMode: 0
      - time: 1.01666641
        value: {x: -0, y: -.0936488211, z: -0, w: -.99560529}
        inSlope: {x: 0, y: .83403194, z: 0, w: -.0784348696}
        outSlope: {x: 0, y: .83403194, z: 0, w: -.0784348696}
        tangentMode: 0
      - time: 1.03333306
        value: {x: -0, y: -.0797212273, z: -0, w: -.996817172}
        inSlope: {x: 0, y: .837231278, z: 0, w: -.0669426322}
        outSlope: {x: 0, y: .837231278, z: 0, w: -.0669426322}
        tangentMode: 0
      - time: 1.04999971
        value: {x: -0, y: -.0657411367, z: -0, w: -.997836709}
        inSlope: {x: 0, y: .840329647, z: 0, w: -.0553483292}
        outSlope: {x: 0, y: .840329647, z: 0, w: -.0553483292}
        tangentMode: 0
      - time: 1.06666636
        value: {x: -0, y: -.0517102666, z: -0, w: -.998662114}
        inSlope: {x: 0, y: .843324661, z: 0, w: -.0436503142}
        outSlope: {x: 0, y: .843324661, z: 0, w: -.0436503142}
        tangentMode: 0
      - time: 1.08333302
        value: {x: -0, y: -.0376303419, z: -0, w: -.999291718}
        inSlope: {x: 0, y: .846214414, z: 0, w: -.0318503678}
        outSlope: {x: 0, y: .846214414, z: 0, w: -.0318503678}
        tangentMode: 0
      - time: 1.09999967
        value: {x: -0, y: -.0235031471, z: -0, w: -.999723792}
        inSlope: {x: 0, y: .848995686, z: 0, w: -.0199431367}
        outSlope: {x: 0, y: .848995686, z: 0, w: -.0199431367}
        tangentMode: 0
      - time: 1.11666632
        value: {x: -0, y: -.00933051202, z: -0, w: -.999956489}
        inSlope: {x: 0, y: .851665676, z: 0, w: -.0079286173}
        outSlope: {x: 0, y: .851665676, z: 0, w: -.0079286173}
        tangentMode: 0
      - time: 1.13333297
        value: {x: -0, y: .0048856819, z: -0, w: -.999988079}
        inSlope: {x: 0, y: .854406178, z: 0, w: .00419497909}
        outSlope: {x: 0, y: .854406178, z: 0, w: .00419497909}
        tangentMode: 0
      - time: 1.14999962
        value: {x: -0, y: .0191496667, z: -0, w: -.999816656}
        inSlope: {x: 0, y: .857345462, z: 0, w: .0164437462}
        outSlope: {x: 0, y: .857345462, z: 0, w: .0164437462}
        tangentMode: 0
      - time: 1.16666627
        value: {x: -0, y: .0334638357, z: -0, w: -.999439955}
        inSlope: {x: 0, y: .860218942, z: 0, w: .0288266223}
        outSlope: {x: 0, y: .860218942, z: 0, w: .0288266223}
        tangentMode: 0
      - time: 1.18333292
        value: {x: -0, y: .0478236042, z: -0, w: -.99885577}
        inSlope: {x: 0, y: .862815142, z: 0, w: .0413328782}
        outSlope: {x: 0, y: .862815142, z: 0, w: .0413328782}
        tangentMode: 0
      - time: 1.19999957
        value: {x: -0, y: .0622243136, z: -0, w: -.998062193}
        inSlope: {x: 0, y: .865130246, z: 0, w: .0539571568}
        outSlope: {x: 0, y: .865130246, z: 0, w: .0539571568}
        tangentMode: 0
      - time: 1.21666622
        value: {x: -0, y: .0766612515, z: -0, w: -.997057199}
        inSlope: {x: 0, y: .867160559, z: 0, w: .0666940808}
        outSlope: {x: 0, y: .867160559, z: 0, w: .0666940808}
        tangentMode: 0
      - time: 1.23333287
        value: {x: -0, y: .0911296383, z: -0, w: -.995839059}
        inSlope: {x: 0, y: .868902445, z: 0, w: .0795347244}
        outSlope: {x: 0, y: .868902445, z: 0, w: .0795347244}
        tangentMode: 0
      - time: 1.24999952
        value: {x: -0, y: .105624638, z: -0, w: -.994406044}
        inSlope: {x: 0, y: .870353937, z: 0, w: .0924683511}
        outSlope: {x: 0, y: .870353937, z: 0, w: .0924683511}
        tangentMode: 0
      - time: 1.26666617
        value: {x: -0, y: .120141409, z: -0, w: -.992756784}
        inSlope: {x: 0, y: .871511996, z: 0, w: .10548602}
        outSlope: {x: 0, y: .871511996, z: 0, w: .10548602}
        tangentMode: 0
      - time: 1.28333282
        value: {x: -0, y: .134675011, z: -0, w: -.990889847}
        inSlope: {x: 0, y: .872373462, z: 0, w: .118585937}
        outSlope: {x: 0, y: .872373462, z: 0, w: .118585937}
        tangentMode: 0
      - time: 1.29999948
        value: {x: -0, y: .149220496, z: -0, w: -.988803923}
        inSlope: {x: 0, y: .872937799, z: 0, w: .131753802}
        outSlope: {x: 0, y: .872937799, z: 0, w: .131753802}
        tangentMode: 0
      - time: 1.31666613
        value: {x: -0, y: .163772911, z: -0, w: -.986498058}
        inSlope: {x: 0, y: .87320292, z: 0, w: .144980699}
        outSlope: {x: 0, y: .87320292, z: 0, w: .144980699}
        tangentMode: 0
      - time: 1.33333278
        value: {x: -0, y: .178327233, z: -0, w: -.983971238}
        inSlope: {x: 0, y: .873164892, z: 0, w: .15826121}
        outSlope: {x: 0, y: .873164892, z: 0, w: .15826121}
        tangentMode: 0
      - time: 1.34999943
        value: {x: -0, y: .19287838, z: -0, w: -.981222689}
        inSlope: {x: 0, y: .87282294, z: 0, w: .171586439}
        outSlope: {x: 0, y: .87282294, z: 0, w: .171586439}
        tangentMode: 0
      - time: 1.36666608
        value: {x: -0, y: .207421303, z: -0, w: -.978251696}
        inSlope: {x: 0, y: .872177839, z: 0, w: .184945643}
        outSlope: {x: 0, y: .872177839, z: 0, w: .184945643}
        tangentMode: 0
      - time: 1.38333273
        value: {x: -0, y: .221950948, z: -0, w: -.97505784}
        inSlope: {x: 0, y: .871227026, z: 0, w: .198329866}
        outSlope: {x: 0, y: .871227026, z: 0, w: .198329866}
        tangentMode: 0
      - time: 1.39999938
        value: {x: -0, y: .236462176, z: -0, w: -.971640706}
        inSlope: {x: 0, y: .869969964, z: 0, w: .211733788}
        outSlope: {x: 0, y: .869969964, z: 0, w: .211733788}
        tangentMode: 0
      - time: 1.41666603
        value: {x: -0, y: .250949919, z: -0, w: -.968000054}
        inSlope: {x: 0, y: .868406236, z: 0, w: .225144833}
        outSlope: {x: 0, y: .868406236, z: 0, w: .225144833}
        tangentMode: 0
      - time: 1.43333268
        value: {x: -0, y: .265409023, z: -0, w: -.964135885}
        inSlope: {x: 0, y: .866537631, z: 0, w: .23855412}
        outSlope: {x: 0, y: .866537631, z: 0, w: .23855412}
        tangentMode: 0
      - time: 1.44999933
        value: {x: -0, y: .279834479, z: -0, w: -.960048258}
        inSlope: {x: 0, y: .864362359, z: 0, w: .251954436}
        outSlope: {x: 0, y: .864362359, z: 0, w: .251954436}
        tangentMode: 0
      - time: 1.46666598
        value: {x: -0, y: .294221073, z: -0, w: -.955737412}
        inSlope: {x: 0, y: .861876845, z: 0, w: .265336871}
        outSlope: {x: 0, y: .861876845, z: 0, w: .265336871}
        tangentMode: 0
      - time: 1.48333263
        value: {x: -0, y: .308563679, z: -0, w: -.951203704}
        inSlope: {x: 0, y: .859087348, z: 0, w: .278692514}
        outSlope: {x: 0, y: .859087348, z: 0, w: .278692514}
        tangentMode: 0
      - time: 1.49999928
        value: {x: -0, y: .322857291, z: -0, w: -.94644767}
        inSlope: {x: 0, y: .855996549, z: 0, w: .292012393}
        outSlope: {x: 0, y: .855996549, z: 0, w: .292012393}
        tangentMode: 0
      - time: 1.51666594
        value: {x: -0, y: .33709687, z: -0, w: -.941469967}
        inSlope: {x: 0, y: .852599978, z: 0, w: .305285752}
        outSlope: {x: 0, y: .852599978, z: 0, w: .305285752}
        tangentMode: 0
      - time: 1.53333259
        value: {x: -0, y: .351277262, z: -0, w: -.936271489}
        inSlope: {x: 0, y: .848899424, z: 0, w: .318503678}
        outSlope: {x: 0, y: .848899424, z: 0, w: .318503678}
        tangentMode: 0
      - time: 1.54999924
        value: {x: -0, y: .36539349, z: -0, w: -.930853188}
        inSlope: {x: 0, y: .84490025, z: 0, w: .331660807}
        outSlope: {x: 0, y: .84490025, z: 0, w: .331660807}
        tangentMode: 0
      - time: 1.56666589
        value: {x: -0, y: .379440576, z: -0, w: -.925216138}
        inSlope: {x: 0, y: .840601504, z: 0, w: .344746441}
        outSlope: {x: 0, y: .840601504, z: 0, w: .344746441}
        tangentMode: 0
      - time: 1.58333254
        value: {x: -0, y: .393413514, z: -0, w: -.919361651}
        inSlope: {x: 0, y: .83600688, z: 0, w: .357751608}
        outSlope: {x: 0, y: .83600688, z: 0, w: .357751608}
        tangentMode: 0
      - time: 1.59999919
        value: {x: -0, y: .407307446, z: -0, w: -.913291097}
        inSlope: {x: 0, y: .831119895, z: 0, w: .370667338}
        outSlope: {x: 0, y: .831119895, z: 0, w: .370667338}
        tangentMode: 0
      - time: 1.61666584
        value: {x: -0, y: .421117485, z: -0, w: -.907006085}
        inSlope: {x: 0, y: .825939655, z: 0, w: .383482933}
        outSlope: {x: 0, y: .825939655, z: 0, w: .383482933}
        tangentMode: 0
      - time: 1.63333249
        value: {x: -0, y: .434838742, z: -0, w: -.900508344}
        inSlope: {x: 0, y: .820470631, z: 0, w: .396193027}
        outSlope: {x: 0, y: .820470631, z: 0, w: .396193027}
        tangentMode: 0
      - time: 1.64999914
        value: {x: -0, y: .44846648, z: -0, w: -.893799663}
        inSlope: {x: 0, y: .814717293, z: 0, w: .408790499}
        outSlope: {x: 0, y: .814717293, z: 0, w: .408790499}
        tangentMode: 0
      - time: 1.66666579
        value: {x: -0, y: .461995959, z: -0, w: -.886882007}
        inSlope: {x: 0, y: .808684111, z: 0, w: .421264589}
        outSlope: {x: 0, y: .808684111, z: 0, w: .421264589}
        tangentMode: 0
      - time: 1.68333244
        value: {x: -0, y: .475422591, z: -0, w: -.879757524}
        inSlope: {x: 0, y: .802372873, z: 0, w: .433604538}
        outSlope: {x: 0, y: .802372873, z: 0, w: .433604538}
        tangentMode: 0
      - time: 1.69999909
        value: {x: -0, y: .488741696, z: -0, w: -.872428536}
        inSlope: {x: 0, y: .795786262, z: 0, w: .445805013}
        outSlope: {x: 0, y: .795786262, z: 0, w: .445805013}
        tangentMode: 0
      - time: 1.71666574
        value: {x: -0, y: .501948774, z: -0, w: -.86489737}
        inSlope: {x: 0, y: .788929641, z: 0, w: .457860649}
        outSlope: {x: 0, y: .788929641, z: 0, w: .457860649}
        tangentMode: 0
      - time: 1.7333324
        value: {x: -0, y: .515039325, z: -0, w: -.857166529}
        inSlope: {x: 0, y: .781810999, z: 0, w: .469760746}
        outSlope: {x: 0, y: .781810999, z: 0, w: .469760746}
        tangentMode: 0
      - time: 1.74999905
        value: {x: -0, y: .528009117, z: -0, w: -.849238694}
        inSlope: {x: 0, y: .774431348, z: 0, w: .481496334}
        outSlope: {x: 0, y: .774431348, z: 0, w: .481496334}
        tangentMode: 0
      - time: 1.7666657
        value: {x: -0, y: .540853679, z: -0, w: -.841116667}
        inSlope: {x: 0, y: .766792417, z: 0, w: .493058443}
        outSlope: {x: 0, y: .766792417, z: 0, w: .493058443}
        tangentMode: 0
      - time: 1.78333235
        value: {x: -0, y: .55356884, z: -0, w: -.832803428}
        inSlope: {x: 0, y: .758906722, z: 0, w: .504445314}
        outSlope: {x: 0, y: .758906722, z: 0, w: .504445314}
        tangentMode: 0
      - time: 1.799999
        value: {x: -0, y: .566150546, z: -0, w: -.824301839}
        inSlope: {x: 0, y: .750777841, z: 0, w: .515648007}
        outSlope: {x: 0, y: .750777841, z: 0, w: .515648007}
        tangentMode: 0
      - time: 1.81666565
        value: {x: -0, y: .578594744, z: -0, w: -.815615177}
        inSlope: {x: 0, y: .74240756, z: 0, w: .526654005}
        outSlope: {x: 0, y: .74240756, z: 0, w: .526654005}
        tangentMode: 0
      - time: 1.8333323
        value: {x: -0, y: .590897441, z: -0, w: -.806746721}
        inSlope: {x: 0, y: .733803034, z: 0, w: .537463367}
        outSlope: {x: 0, y: .733803034, z: 0, w: .537463367}
        tangentMode: 0
      - time: 1.84999895
        value: {x: -0, y: .603054821, z: -0, w: -.797699749}
        inSlope: {x: 0, y: .724969625, z: 0, w: .548065245}
        outSlope: {x: 0, y: .724969625, z: 0, w: .548065245}
        tangentMode: 0
      - time: 1.8666656
        value: {x: -0, y: .615063071, z: -0, w: -.788477898}
        inSlope: {x: 0, y: .715916276, z: 0, w: .558452547}
        outSlope: {x: 0, y: .715916276, z: 0, w: .558452547}
        tangentMode: 0
      - time: 1.88333225
        value: {x: -0, y: .626918674, z: -0, w: -.779084682}
        inSlope: {x: 0, y: .706651866, z: 0, w: .568623483}
        outSlope: {x: 0, y: .706651866, z: 0, w: .568623483}
        tangentMode: 0
      - time: 1.8999989
        value: {x: -0, y: .638618112, z: -0, w: -.769523799}
        inSlope: {x: 0, y: .697176516, z: 0, w: .578567326}
        outSlope: {x: 0, y: .697176516, z: 0, w: .578567326}
        tangentMode: 0
      - time: 1.91666555
        value: {x: -0, y: .650157869, z: -0, w: -.759799123}
        inSlope: {x: 0, y: .687500894, z: 0, w: .588278711}
        outSlope: {x: 0, y: .687500894, z: 0, w: .588278711}
        tangentMode: 0
      - time: 1.9333322
        value: {x: -0, y: .661534786, z: -0, w: -.749914527}
        inSlope: {x: 0, y: .677628577, z: 0, w: .597754121}
        outSlope: {x: 0, y: .677628577, z: 0, w: .597754121}
        tangentMode: 0
      - time: 1.94999886
        value: {x: -0, y: .672745466, z: -0, w: -.739874005}
        inSlope: {x: 0, y: .667566717, z: 0, w: .606986284}
        outSlope: {x: 0, y: .667566717, z: 0, w: .606986284}
        tangentMode: 0
      - time: 1.96666551
        value: {x: -0, y: .683786988, z: -0, w: -.729681671}
        inSlope: {x: 0, y: .657327771, z: 0, w: .615968108}
        outSlope: {x: 0, y: .657327771, z: 0, w: .615968108}
        tangentMode: 0
      - time: 1.98333216
        value: {x: -0, y: .694656372, z: -0, w: -.719341755}
        inSlope: {x: 0, y: .646915734, z: 0, w: .624700308}
        outSlope: {x: 0, y: .646915734, z: 0, w: .624700308}
        tangentMode: 0
      - time: 2
        value: {x: -0, y: .705351591, z: -0, w: -.708857596}
        inSlope: {x: 0, y: .641667843, z: 0, w: .629005134}
        outSlope: {x: 0, y: .641667843, z: 0, w: .629005134}
        tangentMode: 0
      m_PreInfinity: 2
      m_PostInfinity: 2
    path: 
  m_CompressedRotationCurves: []
  m_PositionCurves: []
  m_ScaleCurves: []
  m_FloatCurves: []
  m_PPtrCurves: []
  m_SampleRate: 60
  m_WrapMode: 0
  m_Bounds:
    m_Center: {x: 0, y: 0, z: 0}
    m_Extent: {x: 0, y: 0, z: 0}
  m_AnimationClipSettings:
    serializedVersion: 2
    m_StartTime: 0
    m_StopTime: 2
    m_OrientationOffsetY: 0
    m_Level: 0
    m_CycleOffset: 0
    m_LoopTime: 0
    m_LoopBlend: 0
    m_LoopBlendOrientation: 0
    m_LoopBlendPositionY: 0
    m_LoopBlendPositionXZ: 0
    m_KeepOriginalOrientation: 0
    m_KeepOriginalPositionY: 1
    m_KeepOriginalPositionXZ: 0
    m_HeightFromFeet: 0
    m_Mirror: 0
  m_EditorCurves:
  - curve:
      serializedVersion: 2
      m_Curve:
      - time: 0
        value: -0
        inSlope: 0
        outSlope: 0
        tangentMode: 0
      - time: .0166666675
        value: -0
        inSlope: 0
        outSlope: 0
        tangentMode: 0
      - time: .0333333351
        value: -0
        inSlope: 0
        outSlope: 0
        tangentMode: 0
      - time: .0500000045
        value: -0
        inSlope: 0
        outSlope: 0
        tangentMode: 0
      - time: .0666666701
        value: -0
        inSlope: 0
        outSlope: 0
        tangentMode: 0
      - time: .0833333358
        value: -0
        inSlope: 0
        outSlope: 0
        tangentMode: 0
      - time: .100000001
        value: -0
        inSlope: 0
        outSlope: 0
        tangentMode: 0
      - time: .116666667
        value: -0
        inSlope: 0
        outSlope: 0
        tangentMode: 0
      - time: .13333334
        value: -0
        inSlope: 0
        outSlope: 0
        tangentMode: 0
      - time: .150000006
        value: -0
        inSlope: 0
        outSlope: 0
        tangentMode: 0
      - time: .166666672
        value: -0
        inSlope: 0
        outSlope: 0
        tangentMode: 0
      - time: .183333337
        value: -0
        inSlope: 0
        outSlope: 0
        tangentMode: 0
      - time: .200000003
        value: -0
        inSlope: 0
        outSlope: 0
        tangentMode: 0
      - time: .216666669
        value: -0
        inSlope: 0
        outSlope: 0
        tangentMode: 0
      - time: .233333334
        value: -0
        inSlope: 0
        outSlope: 0
        tangentMode: 0
      - time: .25
        value: -0
        inSlope: 0
        outSlope: 0
        tangentMode: 0
      - time: .266666681
        value: -0
        inSlope: 0
        outSlope: 0
        tangentMode: 0
      - time: .283333361
        value: -0
        inSlope: 0
        outSlope: 0
        tangentMode: 0
      - time: .300000042
        value: -0
        inSlope: 0
        outSlope: 0
        tangentMode: 0
      - time: .316666722
        value: -0
        inSlope: 0
        outSlope: 0
        tangentMode: 0
      - time: .333333403
        value: -0
        inSlope: 0
        outSlope: 0
        tangentMode: 0
      - time: .350000083
        value: -0
        inSlope: 0
        outSlope: 0
        tangentMode: 0
      - time: .366666764
        value: -0
        inSlope: 0
        outSlope: 0
        tangentMode: 0
      - time: .383333445
        value: -0
        inSlope: 0
        outSlope: 0
        tangentMode: 0
      - time: .400000125
        value: -0
        inSlope: 0
        outSlope: 0
        tangentMode: 0
      - time: .416666806
        value: -0
        inSlope: 0
        outSlope: 0
        tangentMode: 0
      - time: .433333486
        value: -0
        inSlope: 0
        outSlope: 0
        tangentMode: 0
      - time: .450000167
        value: -0
        inSlope: 0
        outSlope: 0
        tangentMode: 0
      - time: .466666847
        value: -0
        inSlope: 0
        outSlope: 0
        tangentMode: 0
      - time: .483333528
        value: -0
        inSlope: 0
        outSlope: 0
        tangentMode: 0
      - time: .500000179
        value: -0
        inSlope: 0
        outSlope: 0
        tangentMode: 0
      - time: .51666683
        value: -0
        inSlope: 0
        outSlope: 0
        tangentMode: 0
      - time: .53333348
        value: -0
        inSlope: 0
        outSlope: 0
        tangentMode: 0
      - time: .550000131
        value: -0
        inSlope: 0
        outSlope: 0
        tangentMode: 0
      - time: .566666782
        value: -0
        inSlope: 0
        outSlope: 0
        tangentMode: 0
      - time: .583333433
        value: -0
        inSlope: 0
        outSlope: 0
        tangentMode: 0
      - time: .600000083
        value: -0
        inSlope: 0
        outSlope: 0
        tangentMode: 0
      - time: .616666734
        value: -0
        inSlope: 0
        outSlope: 0
        tangentMode: 0
      - time: .633333385
        value: -0
        inSlope: 0
        outSlope: 0
        tangentMode: 0
      - time: .650000036
        value: -0
        inSlope: 0
        outSlope: 0
        tangentMode: 0
      - time: .666666687
        value: -0
        inSlope: 0
        outSlope: 0
        tangentMode: 0
      - time: .683333337
        value: -0
        inSlope: 0
        outSlope: 0
        tangentMode: 0
      - time: .699999988
        value: -0
        inSlope: 0
        outSlope: 0
        tangentMode: 0
      - time: .716666639
        value: -0
        inSlope: 0
        outSlope: 0
        tangentMode: 0
      - time: .73333329
        value: -0
        inSlope: 0
        outSlope: 0
        tangentMode: 0
      - time: .74999994
        value: -0
        inSlope: 0
        outSlope: 0
        tangentMode: 0
      - time: .766666591
        value: -0
        inSlope: 0
        outSlope: 0
        tangentMode: 0
      - time: .783333242
        value: -0
        inSlope: 0
        outSlope: 0
        tangentMode: 0
      - time: .799999893
        value: -0
        inSlope: 0
        outSlope: 0
        tangentMode: 0
      - time: .816666543
        value: -0
        inSlope: 0
        outSlope: 0
        tangentMode: 0
      - time: .833333194
        value: -0
        inSlope: 0
        outSlope: 0
        tangentMode: 0
      - time: .849999845
        value: -0
        inSlope: 0
        outSlope: 0
        tangentMode: 0
      - time: .866666496
        value: -0
        inSlope: 0
        outSlope: 0
        tangentMode: 0
      - time: .883333147
        value: -0
        inSlope: 0
        outSlope: 0
        tangentMode: 0
      - time: .899999797
        value: -0
        inSlope: 0
        outSlope: 0
        tangentMode: 0
      - time: .916666448
        value: -0
        inSlope: 0
        outSlope: 0
        tangentMode: 0
      - time: .933333099
        value: -0
        inSlope: 0
        outSlope: 0
        tangentMode: 0
      - time: .94999975
        value: -0
        inSlope: 0
        outSlope: 0
        tangentMode: 0
      - time: .9666664
        value: -0
        inSlope: 0
        outSlope: 0
        tangentMode: 0
      - time: .983333051
        value: -0
        inSlope: 0
        outSlope: 0
        tangentMode: 0
      - time: .999999702
        value: -0
        inSlope: 0
        outSlope: 0
        tangentMode: 0
      - time: 1.01666641
        value: -0
        inSlope: 0
        outSlope: 0
        tangentMode: 0
      - time: 1.03333306
        value: -0
        inSlope: 0
        outSlope: 0
        tangentMode: 0
      - time: 1.04999971
        value: -0
        inSlope: 0
        outSlope: 0
        tangentMode: 0
      - time: 1.06666636
        value: -0
        inSlope: 0
        outSlope: 0
        tangentMode: 0
      - time: 1.08333302
        value: -0
        inSlope: 0
        outSlope: 0
        tangentMode: 0
      - time: 1.09999967
        value: -0
        inSlope: 0
        outSlope: 0
        tangentMode: 0
      - time: 1.11666632
        value: -0
        inSlope: 0
        outSlope: 0
        tangentMode: 0
      - time: 1.13333297
        value: -0
        inSlope: 0
        outSlope: 0
        tangentMode: 0
      - time: 1.14999962
        value: -0
        inSlope: 0
        outSlope: 0
        tangentMode: 0
      - time: 1.16666627
        value: -0
        inSlope: 0
        outSlope: 0
        tangentMode: 0
      - time: 1.18333292
        value: -0
        inSlope: 0
        outSlope: 0
        tangentMode: 0
      - time: 1.19999957
        value: -0
        inSlope: 0
        outSlope: 0
        tangentMode: 0
      - time: 1.21666622
        value: -0
        inSlope: 0
        outSlope: 0
        tangentMode: 0
      - time: 1.23333287
        value: -0
        inSlope: 0
        outSlope: 0
        tangentMode: 0
      - time: 1.24999952
        value: -0
        inSlope: 0
        outSlope: 0
        tangentMode: 0
      - time: 1.26666617
        value: -0
        inSlope: 0
        outSlope: 0
        tangentMode: 0
      - time: 1.28333282
        value: -0
        inSlope: 0
        outSlope: 0
        tangentMode: 0
      - time: 1.29999948
        value: -0
        inSlope: 0
        outSlope: 0
        tangentMode: 0
      - time: 1.31666613
        value: -0
        inSlope: 0
        outSlope: 0
        tangentMode: 0
      - time: 1.33333278
        value: -0
        inSlope: 0
        outSlope: 0
        tangentMode: 0
      - time: 1.34999943
        value: -0
        inSlope: 0
        outSlope: 0
        tangentMode: 0
      - time: 1.36666608
        value: -0
        inSlope: 0
        outSlope: 0
        tangentMode: 0
      - time: 1.38333273
        value: -0
        inSlope: 0
        outSlope: 0
        tangentMode: 0
      - time: 1.39999938
        value: -0
        inSlope: 0
        outSlope: 0
        tangentMode: 0
      - time: 1.41666603
        value: -0
        inSlope: 0
        outSlope: 0
        tangentMode: 0
      - time: 1.43333268
        value: -0
        inSlope: 0
        outSlope: 0
        tangentMode: 0
      - time: 1.44999933
        value: -0
        inSlope: 0
        outSlope: 0
        tangentMode: 0
      - time: 1.46666598
        value: -0
        inSlope: 0
        outSlope: 0
        tangentMode: 0
      - time: 1.48333263
        value: -0
        inSlope: 0
        outSlope: 0
        tangentMode: 0
      - time: 1.49999928
        value: -0
        inSlope: 0
        outSlope: 0
        tangentMode: 0
      - time: 1.51666594
        value: -0
        inSlope: 0
        outSlope: 0
        tangentMode: 0
      - time: 1.53333259
        value: -0
        inSlope: 0
        outSlope: 0
        tangentMode: 0
      - time: 1.54999924
        value: -0
        inSlope: 0
        outSlope: 0
        tangentMode: 0
      - time: 1.56666589
        value: -0
        inSlope: 0
        outSlope: 0
        tangentMode: 0
      - time: 1.58333254
        value: -0
        inSlope: 0
        outSlope: 0
        tangentMode: 0
      - time: 1.59999919
        value: -0
        inSlope: 0
        outSlope: 0
        tangentMode: 0
      - time: 1.61666584
        value: -0
        inSlope: 0
        outSlope: 0
        tangentMode: 0
      - time: 1.63333249
        value: -0
        inSlope: 0
        outSlope: 0
        tangentMode: 0
      - time: 1.64999914
        value: -0
        inSlope: 0
        outSlope: 0
        tangentMode: 0
      - time: 1.66666579
        value: -0
        inSlope: 0
        outSlope: 0
        tangentMode: 0
      - time: 1.68333244
        value: -0
        inSlope: 0
        outSlope: 0
        tangentMode: 0
      - time: 1.69999909
        value: -0
        inSlope: 0
        outSlope: 0
        tangentMode: 0
      - time: 1.71666574
        value: -0
        inSlope: 0
        outSlope: 0
        tangentMode: 0
      - time: 1.7333324
        value: -0
        inSlope: 0
        outSlope: 0
        tangentMode: 0
      - time: 1.74999905
        value: -0
        inSlope: 0
        outSlope: 0
        tangentMode: 0
      - time: 1.7666657
        value: -0
        inSlope: 0
        outSlope: 0
        tangentMode: 0
      - time: 1.78333235
        value: -0
        inSlope: 0
        outSlope: 0
        tangentMode: 0
      - time: 1.799999
        value: -0
        inSlope: 0
        outSlope: 0
        tangentMode: 0
      - time: 1.81666565
        value: -0
        inSlope: 0
        outSlope: 0
        tangentMode: 0
      - time: 1.8333323
        value: -0
        inSlope: 0
        outSlope: 0
        tangentMode: 0
      - time: 1.84999895
        value: -0
        inSlope: 0
        outSlope: 0
        tangentMode: 0
      - time: 1.8666656
        value: -0
        inSlope: 0
        outSlope: 0
        tangentMode: 0
      - time: 1.88333225
        value: -0
        inSlope: 0
        outSlope: 0
        tangentMode: 0
      - time: 1.8999989
        value: -0
        inSlope: 0
        outSlope: 0
        tangentMode: 0
      - time: 1.91666555
        value: -0
        inSlope: 0
        outSlope: 0
        tangentMode: 0
      - time: 1.9333322
        value: -0
        inSlope: 0
        outSlope: 0
        tangentMode: 0
      - time: 1.94999886
        value: -0
        inSlope: 0
        outSlope: 0
        tangentMode: 0
      - time: 1.96666551
        value: -0
        inSlope: 0
        outSlope: 0
        tangentMode: 0
      - time: 1.98333216
        value: -0
        inSlope: 0
        outSlope: 0
        tangentMode: 0
      - time: 2
        value: -0
        inSlope: 0
        outSlope: 0
        tangentMode: 0
      m_PreInfinity: 2
      m_PostInfinity: 2
    attribute: m_LocalRotation.x
    path: 
    classID: 4
    script: {fileID: 0}
  - curve:
      serializedVersion: 2
      m_Curve:
      - time: 0
        value: -.791945696
        inSlope: .49898383
        outSlope: .49898383
        tangentMode: 0
      - time: .0166666675
        value: -.783629298
        inSlope: .502882004
        outSlope: .502882004
        tangentMode: 0
      - time: .0333333351
        value: -.775182962
        inSlope: .510633588
        outSlope: .510633588
        tangentMode: 0
      - time: .0500000045
        value: -.766608179
        inSlope: .518293977
        outSlope: .518293977
        tangentMode: 0
      - time: .0666666701
        value: -.757906497
        inSlope: .525859654
        outSlope: .525859654
        tangentMode: 0
      - time: .0833333358
        value: -.749079525
        inSlope: .533335865
        outSlope: .533335865
        tangentMode: 0
      - time: .100000001
        value: -.740128636
        inSlope: .540726244
        outSlope: .540726244
        tangentMode: 0
      - time: .116666667
        value: -.731055319
        inSlope: .54802525
        outSlope: .54802525
        tangentMode: 0
      - time: .13333334
        value: -.721861124
        inSlope: .555240393
        outSlope: .555240393
        tangentMode: 0
      - time: .150000006
        value: -.712547302
        inSlope: .562371671
        outSlope: .562371671
        tangentMode: 0
      - time: .166666672
        value: -.703115404
        inSlope: .569418728
        outSlope: .569418728
        tangentMode: 0
      - time: .183333337
        value: -.69356668
        inSlope: .576387107
        outSlope: .576387107
        tangentMode: 0
      - time: .200000003
        value: -.683902502
        inSlope: .583273232
        outSlope: .583273232
        tangentMode: 0
      - time: .216666669
        value: -.674124241
        inSlope: .59007889
        outSlope: .59007889
        tangentMode: 0
      - time: .233333334
        value: -.664233208
        inSlope: .596809447
        outSlope: .596809447
        tangentMode: 0
      - time: .25
        value: -.654230595
        inSlope: .603462815
        outSlope: .603462815
        tangentMode: 0
      - time: .266666681
        value: -.644117773
        inSlope: .610041142
        outSlope: .610041142
        tangentMode: 0
      - time: .283333361
        value: -.633895874
        inSlope: .616548121
        outSlope: .616548121
        tangentMode: 0
      - time: .300000042
        value: -.623566151
        inSlope: .622976482
        outSlope: .622976482
        tangentMode: 0
      - time: .316666722
        value: -.613129973
        inSlope: .629331529
        outSlope: .629331529
        tangentMode: 0
      - time: .333333403
        value: -.602588415
        inSlope: .635620415
        outSlope: .635620415
        tangentMode: 0
      - time: .350000083
        value: -.591942608
        inSlope: .641837776
        outSlope: .641837776
        tangentMode: 0
      - time: .366666764
        value: -.581193805
        inSlope: .647981822
        outSlope: .647981822
        tangentMode: 0
      - time: .383333445
        value: -.570343196
        inSlope: .654059708
        outSlope: .654059708
        tangentMode: 0
      - time: .400000125
        value: -.559391797
        inSlope: .660069644
        outSlope: .660069644
        tangentMode: 0
      - time: .416666806
        value: -.548340857
        inSlope: .666009843
        outSlope: .666009843
        tangentMode: 0
      - time: .433333486
        value: -.537191451
        inSlope: .671883881
        outSlope: .671883881
        tangentMode: 0
      - time: .450000167
        value: -.52594471
        inSlope: .67768991
        outSlope: .67768991
        tangentMode: 0
      - time: .466666847
        value: -.514601767
        inSlope: .683429837
        outSlope: .683429837
        tangentMode: 0
      - time: .483333528
        value: -.503163695
        inSlope: .689103365
        outSlope: .689103365
        tangentMode: 0
      - time: .500000179
        value: -.491631657
        inSlope: .69471246
        outSlope: .69471246
        tangentMode: 0
      - time: .51666683
        value: -.480006635
        inSlope: .700255692
        outSlope: .700255692
        tangentMode: 0
      - time: .53333348
        value: -.468289822
        inSlope: .705731869
        outSlope: .705731869
        tangentMode: 0
      - time: .550000131
        value: -.456482261
        inSlope: .711144567
        outSlope: .711144567
        tangentMode: 0
      - time: .566666782
        value: -.444585025
        inSlope: .716490269
        outSlope: .716490269
        tangentMode: 0
      - time: .583333433
        value: -.432599276
        inSlope: .721770644
        outSlope: .721770644
        tangentMode: 0
      - time: .600000083
        value: -.420526028
        inSlope: .726987541
        outSlope: .726987541
        tangentMode: 0
      - time: .616666734
        value: -.408366382
        inSlope: .732137382
        outSlope: .732137382
        tangentMode: 0
      - time: .633333385
        value: -.396121472
        inSlope: .737220168
        outSlope: .737220168
        tangentMode: 0
      - time: .650000036
        value: -.3837924
        inSlope: .742237687
        outSlope: .742237687
        tangentMode: 0
      - time: .666666687
        value: -.37138024
        inSlope: .747188151
        outSlope: .747188151
        tangentMode: 0
      - time: .683333337
        value: -.358886153
        inSlope: .752069771
        outSlope: .752069771
        tangentMode: 0
      - time: .699999988
        value: -.346311271
        inSlope: .756885231
        outSlope: .756885231
        tangentMode: 0
      - time: .716666639
        value: -.333656669
        inSlope: .761631846
        outSlope: .761631846
        tangentMode: 0
      - time: .73333329
        value: -.320923567
        inSlope: .766306937
        outSlope: .766306937
        tangentMode: 0
      - time: .74999994
        value: -.308113128
        inSlope: .770913184
        outSlope: .770913184
        tangentMode: 0
      - time: .766666591
        value: -.295226485
        inSlope: .775448799
        outSlope: .775448799
        tangentMode: 0
      - time: .783333242
        value: -.282264858
        inSlope: .77991116
        outSlope: .77991116
        tangentMode: 0
      - time: .799999893
        value: -.269229472
        inSlope: .784300148
        outSlope: .784300148
        tangentMode: 0
      - time: .816666543
        value: -.256121546
        inSlope: .788614511
        outSlope: .788614511
        tangentMode: 0
      - time: .833333194
        value: -.242942348
        inSlope: .792853236
        outSlope: .792853236
        tangentMode: 0
      - time: .849999845
        value: -.22969313
        inSlope: .797015607
        outSlope: .797015607
        tangentMode: 0
      - time: .866666496
        value: -.216375187
        inSlope: .801099718
        outSlope: .801099718
        tangentMode: 0
      - time: .883333147
        value: -.202989832
        inSlope: .805102944
        outSlope: .805102944
        tangentMode: 0
      - time: .899999797
        value: -.189538449
        inSlope: .809023857
        outSlope: .809023857
        tangentMode: 0
      - time: .916666448
        value: -.176022395
        inSlope: .812861681
        outSlope: .812861681
        tangentMode: 0
      - time: .933333099
        value: -.162443087
        inSlope: .816614985
        outSlope: .816614985
        tangentMode: 0
      - time: .94999975
        value: -.148801923
        inSlope: .820281088
        outSlope: .820281088
        tangentMode: 0
      - time: .9666664
        value: -.135100409
        inSlope: .823857605
        outSlope: .823857605
        tangentMode: 0
      - time: .983333051
        value: -.121340029
        inSlope: .827343583
        outSlope: .827343583
        tangentMode: 0
      - time: .999999702
        value: -.107522316
        inSlope: .830735564
        outSlope: .830735564
        tangentMode: 0
      - time: 1.01666641
        value: -.0936488211
        inSlope: .83403194
        outSlope: .83403194
        tangentMode: 0
      - time: 1.03333306
        value: -.0797212273
        inSlope: .837231278
        outSlope: .837231278
        tangentMode: 0
      - time: 1.04999971
        value: -.0657411367
        inSlope: .840329647
        outSlope: .840329647
        tangentMode: 0
      - time: 1.06666636
        value: -.0517102666
        inSlope: .843324661
        outSlope: .843324661
        tangentMode: 0
      - time: 1.08333302
        value: -.0376303419
        inSlope: .846214414
        outSlope: .846214414
        tangentMode: 0
      - time: 1.09999967
        value: -.0235031471
        inSlope: .848995686
        outSlope: .848995686
        tangentMode: 0
      - time: 1.11666632
        value: -.00933051202
        inSlope: .851665676
        outSlope: .851665676
        tangentMode: 0
      - time: 1.13333297
        value: .0048856819
        inSlope: .854406178
        outSlope: .854406178
        tangentMode: 0
      - time: 1.14999962
        value: .0191496667
        inSlope: .857345462
        outSlope: .857345462
        tangentMode: 0
      - time: 1.16666627
        value: .0334638357
        inSlope: .860218942
        outSlope: .860218942
        tangentMode: 0
      - time: 1.18333292
        value: .0478236042
        inSlope: .862815142
        outSlope: .862815142
        tangentMode: 0
      - time: 1.19999957
        value: .0622243136
        inSlope: .865130246
        outSlope: .865130246
        tangentMode: 0
      - time: 1.21666622
        value: .0766612515
        inSlope: .867160559
        outSlope: .867160559
        tangentMode: 0
      - time: 1.23333287
        value: .0911296383
        inSlope: .868902445
        outSlope: .868902445
        tangentMode: 0
      - time: 1.24999952
        value: .105624638
        inSlope: .870353937
        outSlope: .870353937
        tangentMode: 0
      - time: 1.26666617
        value: .120141409
        inSlope: .871511996
        outSlope: .871511996
        tangentMode: 0
      - time: 1.28333282
        value: .134675011
        inSlope: .872373462
        outSlope: .872373462
        tangentMode: 0
      - time: 1.29999948
        value: .149220496
        inSlope: .872937799
        outSlope: .872937799
        tangentMode: 0
      - time: 1.31666613
        value: .163772911
        inSlope: .87320292
        outSlope: .87320292
        tangentMode: 0
      - time: 1.33333278
        value: .178327233
        inSlope: .873164892
        outSlope: .873164892
        tangentMode: 0
      - time: 1.34999943
        value: .19287838
        inSlope: .87282294
        outSlope: .87282294
        tangentMode: 0
      - time: 1.36666608
        value: .207421303
        inSlope: .872177839
        outSlope: .872177839
        tangentMode: 0
      - time: 1.38333273
        value: .221950948
        inSlope: .871227026
        outSlope: .871227026
        tangentMode: 0
      - time: 1.39999938
        value: .236462176
        inSlope: .869969964
        outSlope: .869969964
        tangentMode: 0
      - time: 1.41666603
        value: .250949919
        inSlope: .868406236
        outSlope: .868406236
        tangentMode: 0
      - time: 1.43333268
        value: .265409023
        inSlope: .866537631
        outSlope: .866537631
        tangentMode: 0
      - time: 1.44999933
        value: .279834479
        inSlope: .864362359
        outSlope: .864362359
        tangentMode: 0
      - time: 1.46666598
        value: .294221073
        inSlope: .861876845
        outSlope: .861876845
        tangentMode: 0
      - time: 1.48333263
        value: .308563679
        inSlope: .859087348
        outSlope: .859087348
        tangentMode: 0
      - time: 1.49999928
        value: .322857291
        inSlope: .855996549
        outSlope: .855996549
        tangentMode: 0
      - time: 1.51666594
        value: .33709687
        inSlope: .852599978
        outSlope: .852599978
        tangentMode: 0
      - time: 1.53333259
        value: .351277262
        inSlope: .848899424
        outSlope: .848899424
        tangentMode: 0
      - time: 1.54999924
        value: .36539349
        inSlope: .84490025
        outSlope: .84490025
        tangentMode: 0
      - time: 1.56666589
        value: .379440576
        inSlope: .840601504
        outSlope: .840601504
        tangentMode: 0
      - time: 1.58333254
        value: .393413514
        inSlope: .83600688
        outSlope: .83600688
        tangentMode: 0
      - time: 1.59999919
        value: .407307446
        inSlope: .831119895
        outSlope: .831119895
        tangentMode: 0
      - time: 1.61666584
        value: .421117485
        inSlope: .825939655
        outSlope: .825939655
        tangentMode: 0
      - time: 1.63333249
        value: .434838742
        inSlope: .820470631
        outSlope: .820470631
        tangentMode: 0
      - time: 1.64999914
        value: .44846648
        inSlope: .814717293
        outSlope: .814717293
        tangentMode: 0
      - time: 1.66666579
        value: .461995959
        inSlope: .808684111
        outSlope: .808684111
        tangentMode: 0
      - time: 1.68333244
        value: .475422591
        inSlope: .802372873
        outSlope: .802372873
        tangentMode: 0
      - time: 1.69999909
        value: .488741696
        inSlope: .795786262
        outSlope: .795786262
        tangentMode: 0
      - time: 1.71666574
        value: .501948774
        inSlope: .788929641
        outSlope: .788929641
        tangentMode: 0
      - time: 1.7333324
        value: .515039325
        inSlope: .781810999
        outSlope: .781810999
        tangentMode: 0
      - time: 1.74999905
        value: .528009117
        inSlope: .774431348
        outSlope: .774431348
        tangentMode: 0
      - time: 1.7666657
        value: .540853679
        inSlope: .766792417
        outSlope: .766792417
        tangentMode: 0
      - time: 1.78333235
        value: .55356884
        inSlope: .758906722
        outSlope: .758906722
        tangentMode: 0
      - time: 1.799999
        value: .566150546
        inSlope: .750777841
        outSlope: .750777841
        tangentMode: 0
      - time: 1.81666565
        value: .578594744
        inSlope: .74240756
        outSlope: .74240756
        tangentMode: 0
      - time: 1.8333323
        value: .590897441
        inSlope: .733803034
        outSlope: .733803034
        tangentMode: 0
      - time: 1.84999895
        value: .603054821
        inSlope: .724969625
        outSlope: .724969625
        tangentMode: 0
      - time: 1.8666656
        value: .615063071
        inSlope: .715916276
        outSlope: .715916276
        tangentMode: 0
      - time: 1.88333225
        value: .626918674
        inSlope: .706651866
        outSlope: .706651866
        tangentMode: 0
      - time: 1.8999989
        value: .638618112
        inSlope: .697176516
        outSlope: .697176516
        tangentMode: 0
      - time: 1.91666555
        value: .650157869
        inSlope: .687500894
        outSlope: .687500894
        tangentMode: 0
      - time: 1.9333322
        value: .661534786
        inSlope: .677628577
        outSlope: .677628577
        tangentMode: 0
      - time: 1.94999886
        value: .672745466
        inSlope: .667566717
        outSlope: .667566717
        tangentMode: 0
      - time: 1.96666551
        value: .683786988
        inSlope: .657327771
        outSlope: .657327771
        tangentMode: 0
      - time: 1.98333216
        value: .694656372
        inSlope: .646915734
        outSlope: .646915734
        tangentMode: 0
      - time: 2
        value: .705351591
        inSlope: .641667843
        outSlope: .641667843
        tangentMode: 0
      m_PreInfinity: 2
      m_PostInfinity: 2
    attribute: m_LocalRotation.y
    path: 
    classID: 4
    script: {fileID: 0}
  - curve:
      serializedVersion: 2
      m_Curve:
      - time: 0
        value: -0
        inSlope: 0
        outSlope: 0
        tangentMode: 0
      - time: .0166666675
        value: -0
        inSlope: 0
        outSlope: 0
        tangentMode: 0
      - time: .0333333351
        value: -0
        inSlope: 0
        outSlope: 0
        tangentMode: 0
      - time: .0500000045
        value: -0
        inSlope: 0
        outSlope: 0
        tangentMode: 0
      - time: .0666666701
        value: -0
        inSlope: 0
        outSlope: 0
        tangentMode: 0
      - time: .0833333358
        value: -0
        inSlope: 0
        outSlope: 0
        tangentMode: 0
      - time: .100000001
        value: -0
        inSlope: 0
        outSlope: 0
        tangentMode: 0
      - time: .116666667
        value: -0
        inSlope: 0
        outSlope: 0
        tangentMode: 0
      - time: .13333334
        value: -0
        inSlope: 0
        outSlope: 0
        tangentMode: 0
      - time: .150000006
        value: -0
        inSlope: 0
        outSlope: 0
        tangentMode: 0
      - time: .166666672
        value: -0
        inSlope: 0
        outSlope: 0
        tangentMode: 0
      - time: .183333337
        value: -0
        inSlope: 0
        outSlope: 0
        tangentMode: 0
      - time: .200000003
        value: -0
        inSlope: 0
        outSlope: 0
        tangentMode: 0
      - time: .216666669
        value: -0
        inSlope: 0
        outSlope: 0
        tangentMode: 0
      - time: .233333334
        value: -0
        inSlope: 0
        outSlope: 0
        tangentMode: 0
      - time: .25
        value: -0
        inSlope: 0
        outSlope: 0
        tangentMode: 0
      - time: .266666681
        value: -0
        inSlope: 0
        outSlope: 0
        tangentMode: 0
      - time: .283333361
        value: -0
        inSlope: 0
        outSlope: 0
        tangentMode: 0
      - time: .300000042
        value: -0
        inSlope: 0
        outSlope: 0
        tangentMode: 0
      - time: .316666722
        value: -0
        inSlope: 0
        outSlope: 0
        tangentMode: 0
      - time: .333333403
        value: -0
        inSlope: 0
        outSlope: 0
        tangentMode: 0
      - time: .350000083
        value: -0
        inSlope: 0
        outSlope: 0
        tangentMode: 0
      - time: .366666764
        value: -0
        inSlope: 0
        outSlope: 0
        tangentMode: 0
      - time: .383333445
        value: -0
        inSlope: 0
        outSlope: 0
        tangentMode: 0
      - time: .400000125
        value: -0
        inSlope: 0
        outSlope: 0
        tangentMode: 0
      - time: .416666806
        value: -0
        inSlope: 0
        outSlope: 0
        tangentMode: 0
      - time: .433333486
        value: -0
        inSlope: 0
        outSlope: 0
        tangentMode: 0
      - time: .450000167
        value: -0
        inSlope: 0
        outSlope: 0
        tangentMode: 0
      - time: .466666847
        value: -0
        inSlope: 0
        outSlope: 0
        tangentMode: 0
      - time: .483333528
        value: -0
        inSlope: 0
        outSlope: 0
        tangentMode: 0
      - time: .500000179
        value: -0
        inSlope: 0
        outSlope: 0
        tangentMode: 0
      - time: .51666683
        value: -0
        inSlope: 0
        outSlope: 0
        tangentMode: 0
      - time: .53333348
        value: -0
        inSlope: 0
        outSlope: 0
        tangentMode: 0
      - time: .550000131
        value: -0
        inSlope: 0
        outSlope: 0
        tangentMode: 0
      - time: .566666782
        value: -0
        inSlope: 0
        outSlope: 0
        tangentMode: 0
      - time: .583333433
        value: -0
        inSlope: 0
        outSlope: 0
        tangentMode: 0
      - time: .600000083
        value: -0
        inSlope: 0
        outSlope: 0
        tangentMode: 0
      - time: .616666734
        value: -0
        inSlope: 0
        outSlope: 0
        tangentMode: 0
      - time: .633333385
        value: -0
        inSlope: 0
        outSlope: 0
        tangentMode: 0
      - time: .650000036
        value: -0
        inSlope: 0
        outSlope: 0
        tangentMode: 0
      - time: .666666687
        value: -0
        inSlope: 0
        outSlope: 0
        tangentMode: 0
      - time: .683333337
        value: -0
        inSlope: 0
        outSlope: 0
        tangentMode: 0
      - time: .699999988
        value: -0
        inSlope: 0
        outSlope: 0
        tangentMode: 0
      - time: .716666639
        value: -0
        inSlope: 0
        outSlope: 0
        tangentMode: 0
      - time: .73333329
        value: -0
        inSlope: 0
        outSlope: 0
        tangentMode: 0
      - time: .74999994
        value: -0
        inSlope: 0
        outSlope: 0
        tangentMode: 0
      - time: .766666591
        value: -0
        inSlope: 0
        outSlope: 0
        tangentMode: 0
      - time: .783333242
        value: -0
        inSlope: 0
        outSlope: 0
        tangentMode: 0
      - time: .799999893
        value: -0
        inSlope: 0
        outSlope: 0
        tangentMode: 0
      - time: .816666543
        value: -0
        inSlope: 0
        outSlope: 0
        tangentMode: 0
      - time: .833333194
        value: -0
        inSlope: 0
        outSlope: 0
        tangentMode: 0
      - time: .849999845
        value: -0
        inSlope: 0
        outSlope: 0
        tangentMode: 0
      - time: .866666496
        value: -0
        inSlope: 0
        outSlope: 0
        tangentMode: 0
      - time: .883333147
        value: -0
        inSlope: 0
        outSlope: 0
        tangentMode: 0
      - time: .899999797
        value: -0
        inSlope: 0
        outSlope: 0
        tangentMode: 0
      - time: .916666448
        value: -0
        inSlope: 0
        outSlope: 0
        tangentMode: 0
      - time: .933333099
        value: -0
        inSlope: 0
        outSlope: 0
        tangentMode: 0
      - time: .94999975
        value: -0
        inSlope: 0
        outSlope: 0
        tangentMode: 0
      - time: .9666664
        value: -0
        inSlope: 0
        outSlope: 0
        tangentMode: 0
      - time: .983333051
        value: -0
        inSlope: 0
        outSlope: 0
        tangentMode: 0
      - time: .999999702
        value: -0
        inSlope: 0
        outSlope: 0
        tangentMode: 0
      - time: 1.01666641
        value: -0
        inSlope: 0
        outSlope: 0
        tangentMode: 0
      - time: 1.03333306
        value: -0
        inSlope: 0
        outSlope: 0
        tangentMode: 0
      - time: 1.04999971
        value: -0
        inSlope: 0
        outSlope: 0
        tangentMode: 0
      - time: 1.06666636
        value: -0
        inSlope: 0
        outSlope: 0
        tangentMode: 0
      - time: 1.08333302
        value: -0
        inSlope: 0
        outSlope: 0
        tangentMode: 0
      - time: 1.09999967
        value: -0
        inSlope: 0
        outSlope: 0
        tangentMode: 0
      - time: 1.11666632
        value: -0
        inSlope: 0
        outSlope: 0
        tangentMode: 0
      - time: 1.13333297
        value: -0
        inSlope: 0
        outSlope: 0
        tangentMode: 0
      - time: 1.14999962
        value: -0
        inSlope: 0
        outSlope: 0
        tangentMode: 0
      - time: 1.16666627
        value: -0
        inSlope: 0
        outSlope: 0
        tangentMode: 0
      - time: 1.18333292
        value: -0
        inSlope: 0
        outSlope: 0
        tangentMode: 0
      - time: 1.19999957
        value: -0
        inSlope: 0
        outSlope: 0
        tangentMode: 0
      - time: 1.21666622
        value: -0
        inSlope: 0
        outSlope: 0
        tangentMode: 0
      - time: 1.23333287
        value: -0
        inSlope: 0
        outSlope: 0
        tangentMode: 0
      - time: 1.24999952
        value: -0
        inSlope: 0
        outSlope: 0
        tangentMode: 0
      - time: 1.26666617
        value: -0
        inSlope: 0
        outSlope: 0
        tangentMode: 0
      - time: 1.28333282
        value: -0
        inSlope: 0
        outSlope: 0
        tangentMode: 0
      - time: 1.29999948
        value: -0
        inSlope: 0
        outSlope: 0
        tangentMode: 0
      - time: 1.31666613
        value: -0
        inSlope: 0
        outSlope: 0
        tangentMode: 0
      - time: 1.33333278
        value: -0
        inSlope: 0
        outSlope: 0
        tangentMode: 0
      - time: 1.34999943
        value: -0
        inSlope: 0
        outSlope: 0
        tangentMode: 0
      - time: 1.36666608
        value: -0
        inSlope: 0
        outSlope: 0
        tangentMode: 0
      - time: 1.38333273
        value: -0
        inSlope: 0
        outSlope: 0
        tangentMode: 0
      - time: 1.39999938
        value: -0
        inSlope: 0
        outSlope: 0
        tangentMode: 0
      - time: 1.41666603
        value: -0
        inSlope: 0
        outSlope: 0
        tangentMode: 0
      - time: 1.43333268
        value: -0
        inSlope: 0
        outSlope: 0
        tangentMode: 0
      - time: 1.44999933
        value: -0
        inSlope: 0
        outSlope: 0
        tangentMode: 0
      - time: 1.46666598
        value: -0
        inSlope: 0
        outSlope: 0
        tangentMode: 0
      - time: 1.48333263
        value: -0
        inSlope: 0
        outSlope: 0
        tangentMode: 0
      - time: 1.49999928
        value: -0
        inSlope: 0
        outSlope: 0
        tangentMode: 0
      - time: 1.51666594
        value: -0
        inSlope: 0
        outSlope: 0
        tangentMode: 0
      - time: 1.53333259
        value: -0
        inSlope: 0
        outSlope: 0
        tangentMode: 0
      - time: 1.54999924
        value: -0
        inSlope: 0
        outSlope: 0
        tangentMode: 0
      - time: 1.56666589
        value: -0
        inSlope: 0
        outSlope: 0
        tangentMode: 0
      - time: 1.58333254
        value: -0
        inSlope: 0
        outSlope: 0
        tangentMode: 0
      - time: 1.59999919
        value: -0
        inSlope: 0
        outSlope: 0
        tangentMode: 0
      - time: 1.61666584
        value: -0
        inSlope: 0
        outSlope: 0
        tangentMode: 0
      - time: 1.63333249
        value: -0
        inSlope: 0
        outSlope: 0
        tangentMode: 0
      - time: 1.64999914
        value: -0
        inSlope: 0
        outSlope: 0
        tangentMode: 0
      - time: 1.66666579
        value: -0
        inSlope: 0
        outSlope: 0
        tangentMode: 0
      - time: 1.68333244
        value: -0
        inSlope: 0
        outSlope: 0
        tangentMode: 0
      - time: 1.69999909
        value: -0
        inSlope: 0
        outSlope: 0
        tangentMode: 0
      - time: 1.71666574
        value: -0
        inSlope: 0
        outSlope: 0
        tangentMode: 0
      - time: 1.7333324
        value: -0
        inSlope: 0
        outSlope: 0
        tangentMode: 0
      - time: 1.74999905
        value: -0
        inSlope: 0
        outSlope: 0
        tangentMode: 0
      - time: 1.7666657
        value: -0
        inSlope: 0
        outSlope: 0
        tangentMode: 0
      - time: 1.78333235
        value: -0
        inSlope: 0
        outSlope: 0
        tangentMode: 0
      - time: 1.799999
        value: -0
        inSlope: 0
        outSlope: 0
        tangentMode: 0
      - time: 1.81666565
        value: -0
        inSlope: 0
        outSlope: 0
        tangentMode: 0
      - time: 1.8333323
        value: -0
        inSlope: 0
        outSlope: 0
        tangentMode: 0
      - time: 1.84999895
        value: -0
        inSlope: 0
        outSlope: 0
        tangentMode: 0
      - time: 1.8666656
        value: -0
        inSlope: 0
        outSlope: 0
        tangentMode: 0
      - time: 1.88333225
        value: -0
        inSlope: 0
        outSlope: 0
        tangentMode: 0
      - time: 1.8999989
        value: -0
        inSlope: 0
        outSlope: 0
        tangentMode: 0
      - time: 1.91666555
        value: -0
        inSlope: 0
        outSlope: 0
        tangentMode: 0
      - time: 1.9333322
        value: -0
        inSlope: 0
        outSlope: 0
        tangentMode: 0
      - time: 1.94999886
        value: -0
        inSlope: 0
        outSlope: 0
        tangentMode: 0
      - time: 1.96666551
        value: -0
        inSlope: 0
        outSlope: 0
        tangentMode: 0
      - time: 1.98333216
        value: -0
        inSlope: 0
        outSlope: 0
        tangentMode: 0
      - time: 2
        value: -0
        inSlope: 0
        outSlope: 0
        tangentMode: 0
      m_PreInfinity: 2
      m_PostInfinity: 2
    attribute: m_LocalRotation.z
    path: 
    classID: 4
    script: {fileID: 0}
  - curve:
      serializedVersion: 2
      m_Curve:
      - time: 0
        value: -.610591531
        inSlope: -.638229787
        outSlope: -.638229787
        tangentMode: 0
      - time: .0166666675
        value: -.621228695
        inSlope: -.634356678
        outSlope: -.634356678
        tangentMode: 0
      - time: .0333333351
        value: -.631736755
        inSlope: -.626594305
        outSlope: -.626594305
        tangentMode: 0
      - time: .0500000045
        value: -.642115176
        inSlope: -.618792772
        outSlope: -.618792772
        tangentMode: 0
      - time: .0666666701
        value: -.652363181
        inSlope: -.610948265
        outSlope: -.610948265
        tangentMode: 0
      - time: .0833333358
        value: -.662480116
        inSlope: -.603064358
        outSlope: -.603064358
        tangentMode: 0
      - time: .100000001
        value: -.672465324
        inSlope: -.595141113
        outSlope: -.595141113
        tangentMode: 0
      - time: .116666667
        value: -.682318151
        inSlope: -.587180138
        outSlope: -.587180138
        tangentMode: 0
      - time: .13333334
        value: -.692038
        inSlope: -.579178214
        outSlope: -.579178214
        tangentMode: 0
      - time: .150000006
        value: -.701624095
        inSlope: -.571133554
        outSlope: -.571133554
        tangentMode: 0
      - time: .166666672
        value: -.711075783
        inSlope: -.563049376
        outSlope: -.563049376
        tangentMode: 0
      - time: .183333337
        value: -.720392406
        inSlope: -.554927647
        outSlope: -.554927647
        tangentMode: 0
      - time: .200000003
        value: -.729573369
        inSlope: -.546766579
        outSlope: -.546766579
        tangentMode: 0
      - time: .216666669
        value: -.738617957
        inSlope: -.538562596
        outSlope: -.538562596
        tangentMode: 0
      - time: .233333334
        value: -.747525454
        inSlope: -.530315697
        outSlope: -.530315697
        tangentMode: 0
      - time: .25
        value: -.756295145
        inSlope: -.522027433
        outSlope: -.522027433
        tangentMode: 0
      - time: .266666681
        value: -.764926374
        inSlope: -.513696253
        outSlope: -.513696253
        tangentMode: 0
      - time: .283333361
        value: -.773418367
        inSlope: -.505325973
        outSlope: -.505325973
        tangentMode: 0
      - time: .300000042
        value: -.781770587
        inSlope: -.496910989
        outSlope: -.496910989
        tangentMode: 0
      - time: .316666722
        value: -.78998208
        inSlope: -.488445938
        outSlope: -.488445938
        tangentMode: 0
      - time: .333333403
        value: -.798052132
        inSlope: -.479939759
        outSlope: -.479939759
        tangentMode: 0
      - time: .350000083
        value: -.805980086
        inSlope: -.471390694
        outSlope: -.471390694
        tangentMode: 0
      - time: .366666764
        value: -.813765168
        inSlope: -.46279332
        outSlope: -.46279332
        tangentMode: 0
      - time: .383333445
        value: -.821406543
        inSlope: -.454145879
        outSlope: -.454145879
        tangentMode: 0
      - time: .400000125
        value: -.828903377
        inSlope: -.445450187
        outSlope: -.445450187
        tangentMode: 0
      - time: .416666806
        value: -.836254895
        inSlope: -.436709762
        outSlope: -.436709762
        tangentMode: 0
      - time: .433333486
        value: -.843460381
        inSlope: -.427915692
        outSlope: -.427915692
        tangentMode: 0
      - time: .450000167
        value: -.850518763
        inSlope: -.419067979
        outSlope: -.419067979
        tangentMode: 0
      - time: .466666847
        value: -.857429326
        inSlope: -.410170197
        outSlope: -.410170197
        tangentMode: 0
      - time: .483333528
        value: -.864191115
        inSlope: -.401217371
        outSlope: -.401217371
        tangentMode: 0
      - time: .500000179
        value: -.870803237
        inSlope: -.392212629
        outSlope: -.392212629
        tangentMode: 0
      - time: .51666683
        value: -.877264857
        inSlope: -.383150339
        outSlope: -.383150339
        tangentMode: 0
      - time: .53333348
        value: -.883574903
        inSlope: -.374030828
        outSlope: -.374030828
        tangentMode: 0
      - time: .550000131
        value: -.88973254
        inSlope: -.364852309
        outSlope: -.364852309
        tangentMode: 0
      - time: .566666782
        value: -.895736635
        inSlope: -.355612993
        outSlope: -.355612993
        tangentMode: 0
      - time: .583333433
        value: -.901586294
        inSlope: -.346316427
        outSlope: -.346316427
        tangentMode: 0
      - time: .600000083
        value: -.907280505
        inSlope: -.336953729
        outSlope: -.336953729
        tangentMode: 0
      - time: .616666734
        value: -.912818074
        inSlope: -.327528417
        outSlope: -.327528417
        tangentMode: 0
      - time: .633333385
        value: -.918198109
        inSlope: -.31804055
        outSlope: -.31804055
        tangentMode: 0
      - time: .650000036
        value: -.923419416
        inSlope: -.308482945
        outSlope: -.308482945
        tangentMode: 0
      - time: .666666687
        value: -.928480864
        inSlope: -.298857391
        outSlope: -.298857391
        tangentMode: 0
      - time: .683333337
        value: -.933381319
        inSlope: -.289163858
        outSlope: -.289163858
        tangentMode: 0
      - time: .699999988
        value: -.93811965
        inSlope: -.279400617
        outSlope: -.279400617
        tangentMode: 0
      - time: .716666639
        value: -.942694664
        inSlope: -.269564033
        outSlope: -.269564033
        tangentMode: 0
      - time: .73333329
        value: -.94710511
        inSlope: -.259652376
        outSlope: -.259652376
        tangentMode: 0
      - time: .74999994
        value: -.951349735
        inSlope: -.249665618
        outSlope: -.249665618
        tangentMode: 0
      - time: .766666591
        value: -.955427289
        inSlope: -.239603758
        outSlope: -.239603758
        tangentMode: 0
      - time: .783333242
        value: -.959336519
        inSlope: -.22946319
        outSlope: -.22946319
        tangentMode: 0
      - time: .799999893
        value: -.963076055
        inSlope: -.219242185
        outSlope: -.219242185
        tangentMode: 0
      - time: .816666543
        value: -.966644585
        inSlope: -.208940715
        outSlope: -.208940715
        tangentMode: 0
      - time: .833333194
        value: -.970040739
        inSlope: -.198555171
        outSlope: -.198555171
        tangentMode: 0
      - time: .849999845
        value: -.973263085
        inSlope: -.188087404
        outSlope: -.188087404
        tangentMode: 0
      - time: .866666496
        value: -.976310313
        inSlope: -.177533805
        outSlope: -.177533805
        tangentMode: 0
      - time: .883333147
        value: -.979180872
        inSlope: -.166888982
        outSlope: -.166888982
        tangentMode: 0
      - time: .899999797
        value: -.981873274
        inSlope: -.156158358
        outSlope: -.156158358
        tangentMode: 0
      - time: .916666448
        value: -.984386146
        inSlope: -.145340115
        outSlope: -.145340115
        tangentMode: 0
      - time: .933333099
        value: -.986717939
        inSlope: -.134427071
        outSlope: -.134427071
        tangentMode: 0
      - time: .94999975
        value: -.988867044
        inSlope: -.123419285
        outSlope: -.123419285
        tangentMode: 0
      - time: .9666664
        value: -.990831912
        inSlope: -.112318501
        outSlope: -.112318501
        tangentMode: 0
      - time: .983333051
        value: -.992610991
        inSlope: -.101122953
        outSlope: -.101122953
        tangentMode: 0
      - time: .999999702
        value: -.994202673
        inSlope: -.089828901
        outSlope: -.089828901
        tangentMode: 0
      - time: 1.01666641
        value: -.99560529
        inSlope: -.0784348696
        outSlope: -.0784348696
        tangentMode: 0
      - time: 1.03333306
        value: -.996817172
        inSlope: -.0669426322
        outSlope: -.0669426322
        tangentMode: 0
      - time: 1.04999971
        value: -.997836709
        inSlope: -.0553483292
        outSlope: -.0553483292
        tangentMode: 0
      - time: 1.06666636
        value: -.998662114
        inSlope: -.0436503142
        outSlope: -.0436503142
        tangentMode: 0
      - time: 1.08333302
        value: -.999291718
        inSlope: -.0318503678
        outSlope: -.0318503678
        tangentMode: 0
      - time: 1.09999967
        value: -.999723792
        inSlope: -.0199431367
        outSlope: -.0199431367
        tangentMode: 0
      - time: 1.11666632
        value: -.999956489
        inSlope: -.0079286173
        outSlope: -.0079286173
        tangentMode: 0
      - time: 1.13333297
        value: -.999988079
        inSlope: .00419497909
        outSlope: .00419497909
        tangentMode: 0
      - time: 1.14999962
        value: -.999816656
        inSlope: .0164437462
        outSlope: .0164437462
        tangentMode: 0
      - time: 1.16666627
        value: -.999439955
        inSlope: .0288266223
        outSlope: .0288266223
        tangentMode: 0
      - time: 1.18333292
        value: -.99885577
        inSlope: .0413328782
        outSlope: .0413328782
        tangentMode: 0
      - time: 1.19999957
        value: -.998062193
        inSlope: .0539571568
        outSlope: .0539571568
        tangentMode: 0
      - time: 1.21666622
        value: -.997057199
        inSlope: .0666940808
        outSlope: .0666940808
        tangentMode: 0
      - time: 1.23333287
        value: -.995839059
        inSlope: .0795347244
        outSlope: .0795347244
        tangentMode: 0
      - time: 1.24999952
        value: -.994406044
        inSlope: .0924683511
        outSlope: .0924683511
        tangentMode: 0
      - time: 1.26666617
        value: -.992756784
        inSlope: .10548602
        outSlope: .10548602
        tangentMode: 0
      - time: 1.28333282
        value: -.990889847
        inSlope: .118585937
        outSlope: .118585937
        tangentMode: 0
      - time: 1.29999948
        value: -.988803923
        inSlope: .131753802
        outSlope: .131753802
        tangentMode: 0
      - time: 1.31666613
        value: -.986498058
        inSlope: .144980699
        outSlope: .144980699
        tangentMode: 0
      - time: 1.33333278
        value: -.983971238
        inSlope: .15826121
        outSlope: .15826121
        tangentMode: 0
      - time: 1.34999943
        value: -.981222689
        inSlope: .171586439
        outSlope: .171586439
        tangentMode: 0
      - time: 1.36666608
        value: -.978251696
        inSlope: .184945643
        outSlope: .184945643
        tangentMode: 0
      - time: 1.38333273
        value: -.97505784
        inSlope: .198329866
        outSlope: .198329866
        tangentMode: 0
      - time: 1.39999938
        value: -.971640706
        inSlope: .211733788
        outSlope: .211733788
        tangentMode: 0
      - time: 1.41666603
        value: -.968000054
        inSlope: .225144833
        outSlope: .225144833
        tangentMode: 0
      - time: 1.43333268
        value: -.964135885
        inSlope: .23855412
        outSlope: .23855412
        tangentMode: 0
      - time: 1.44999933
        value: -.960048258
        inSlope: .251954436
        outSlope: .251954436
        tangentMode: 0
      - time: 1.46666598
        value: -.955737412
        inSlope: .265336871
        outSlope: .265336871
        tangentMode: 0
      - time: 1.48333263
        value: -.951203704
        inSlope: .278692514
        outSlope: .278692514
        tangentMode: 0
      - time: 1.49999928
        value: -.94644767
        inSlope: .292012393
        outSlope: .292012393
        tangentMode: 0
      - time: 1.51666594
        value: -.941469967
        inSlope: .305285752
        outSlope: .305285752
        tangentMode: 0
      - time: 1.53333259
        value: -.936271489
        inSlope: .318503678
        outSlope: .318503678
        tangentMode: 0
      - time: 1.54999924
        value: -.930853188
        inSlope: .331660807
        outSlope: .331660807
        tangentMode: 0
      - time: 1.56666589
        value: -.925216138
        inSlope: .344746441
        outSlope: .344746441
        tangentMode: 0
      - time: 1.58333254
        value: -.919361651
        inSlope: .357751608
        outSlope: .357751608
        tangentMode: 0
      - time: 1.59999919
        value: -.913291097
        inSlope: .370667338
        outSlope: .370667338
        tangentMode: 0
      - time: 1.61666584
        value: -.907006085
        inSlope: .383482933
        outSlope: .383482933
        tangentMode: 0
      - time: 1.63333249
        value: -.900508344
        inSlope: .396193027
        outSlope: .396193027
        tangentMode: 0
      - time: 1.64999914
        value: -.893799663
        inSlope: .408790499
        outSlope: .408790499
        tangentMode: 0
      - time: 1.66666579
        value: -.886882007
        inSlope: .421264589
        outSlope: .421264589
        tangentMode: 0
      - time: 1.68333244
        value: -.879757524
        inSlope: .433604538
        outSlope: .433604538
        tangentMode: 0
      - time: 1.69999909
        value: -.872428536
        inSlope: .445805013
        outSlope: .445805013
        tangentMode: 0
      - time: 1.71666574
        value: -.86489737
        inSlope: .457860649
        outSlope: .457860649
        tangentMode: 0
      - time: 1.7333324
        value: -.857166529
        inSlope: .469760746
        outSlope: .469760746
        tangentMode: 0
      - time: 1.74999905
        value: -.849238694
        inSlope: .481496334
        outSlope: .481496334
        tangentMode: 0
      - time: 1.7666657
        value: -.841116667
        inSlope: .493058443
        outSlope: .493058443
        tangentMode: 0
      - time: 1.78333235
        value: -.832803428
        inSlope: .504445314
        outSlope: .504445314
        tangentMode: 0
      - time: 1.799999
        value: -.824301839
        inSlope: .515648007
        outSlope: .515648007
        tangentMode: 0
      - time: 1.81666565
        value: -.815615177
        inSlope: .526654005
        outSlope: .526654005
        tangentMode: 0
      - time: 1.8333323
        value: -.806746721
        inSlope: .537463367
        outSlope: .537463367
        tangentMode: 0
      - time: 1.84999895
        value: -.797699749
        inSlope: .548065245
        outSlope: .548065245
        tangentMode: 0
      - time: 1.8666656
        value: -.788477898
        inSlope: .558452547
        outSlope: .558452547
        tangentMode: 0
      - time: 1.88333225
        value: -.779084682
        inSlope: .568623483
        outSlope: .568623483
        tangentMode: 0
      - time: 1.8999989
        value: -.769523799
        inSlope: .578567326
        outSlope: .578567326
        tangentMode: 0
      - time: 1.91666555
        value: -.759799123
        inSlope: .588278711
        outSlope: .588278711
        tangentMode: 0
      - time: 1.9333322
        value: -.749914527
        inSlope: .597754121
        outSlope: .597754121
        tangentMode: 0
      - time: 1.94999886
        value: -.739874005
        inSlope: .606986284
        outSlope: .606986284
        tangentMode: 0
      - time: 1.96666551
        value: -.729681671
        inSlope: .615968108
        outSlope: .615968108
        tangentMode: 0
      - time: 1.98333216
        value: -.719341755
        inSlope: .624700308
        outSlope: .624700308
        tangentMode: 0
      - time: 2
        value: -.708857596
        inSlope: .629005134
        outSlope: .629005134
        tangentMode: 0
      m_PreInfinity: 2
      m_PostInfinity: 2
    attribute: m_LocalRotation.w
    path: 
    classID: 4
    script: {fileID: 0}
  m_EulerEditorCurves:
  - curve:
      serializedVersion: 2
      m_Curve:
      - time: 0
        value: 0
        inSlope: 0
        outSlope: 0
        tangentMode: 10
      - time: 1
        value: 0
        inSlope: 0
        outSlope: 0
        tangentMode: 10
      - time: 2
        value: 0
        inSlope: 0
        outSlope: 0
        tangentMode: 10
      m_PreInfinity: 2
      m_PostInfinity: 2
    attribute: localEulerAnglesBaked.x
    path: 
    classID: 4
    script: {fileID: 0}
  - curve:
      serializedVersion: 2
      m_Curve:
      - time: 0
        value: 104.735428
        inSlope: -92.9076385
        outSlope: -92.9076385
        tangentMode: 10
      - time: 1.13333333
        value: -.559898198
        inSlope: -97.8899841
        outSlope: -97.8899841
        tangentMode: 10
      - time: 2
        value: -89.7159119
        inSlope: -102.872322
        outSlope: -102.872322
        tangentMode: 10
      m_PreInfinity: 2
      m_PostInfinity: 2
    attribute: localEulerAnglesBaked.y
    path: 
    classID: 4
    script: {fileID: 0}
  - curve:
      serializedVersion: 2
      m_Curve:
      - time: 0
        value: 0
        inSlope: 0
        outSlope: 0
        tangentMode: 10
      - time: 1
        value: 0
        inSlope: 0
        outSlope: 0
        tangentMode: 10
      - time: 2
        value: 0
        inSlope: 0
        outSlope: 0
        tangentMode: 10
      m_PreInfinity: 2
      m_PostInfinity: 2
    attribute: localEulerAnglesBaked.z
    path: 
    classID: 4
    script: {fileID: 0}
  m_Events:
  - time: 2
    functionName: CamRot
    data: 
    objectReferenceParameter: {fileID: 0}
    floatParameter: 0
    intParameter: 0
    messageOptions: 0
