%YAML 1.1
%TAG !u! tag:unity3d.com,2011:
--- !u!13 &1
InputManager:
  m_ObjectHideFlags: 0
  m_Axes:
  - serializedVersion: 3
    m_Name: Horizontal
    descriptiveName: 
    descriptiveNegativeName: 
    negativeButton: left
    positiveButton: right
    altNegativeButton: a
    altPositiveButton: d
    gravity: 5
    dead: .00100000005
    sensitivity: 5
    snap: 0
    invert: 0
    type: 0
    axis: 0
    joyNum: 0
  - serializedVersion: 3
    m_Name: Vertical
    descriptiveName: 
    descriptiveNegativeName: 
    negativeButton: down
    positiveButton: up
    altNegativeButton: s
    altPositiveButton: w
    gravity: 5
    dead: .00100000005
    sensitivity: 5
    snap: 0
    invert: 0
    type: 0
    axis: 0
    joyNum: 0
  - serializedVersion: 3
    m_Name: Sneak
    descriptiveName: 
    descriptiveNegativeName: 
    negativeButton: 
    positiveButton: left shift
    altNegativeButton: 
    altPositiveButton: 
    gravity: 1000
    dead: .00100000005
    sensitivity: 1000
    snap: 1
    invert: 0
    type: 0
    axis: 0
    joyNum: 0
  - serializedVersion: 3
    m_Name: Attract
    descriptiveName: 
    descriptiveNegativeName: 
    negativeButton: 
    positiveButton: x
    altNegativeButton: 
    altPositiveButton: 
    gravity: 1000
    dead: .00100000005
    sensitivity: 1000
    snap: 1
    invert: 0
    type: 0
    axis: 0
    joyNum: 0
  - serializedVersion: 3
    m_Name: Switch
    descriptiveName: 
    descriptiveNegativeName: 
    negativeButton: 
    positiveButton: z
    altNegativeButton: 
    altPositiveButton: 
    gravity: 1000
    dead: .00100000005
    sensitivity: 1000
    snap: 1
    invert: 0
    type: 0
    axis: 0
    joyNum: 0
  - serializedVersion: 3
    m_Name: Horizontal
    descriptiveName: 
    descriptiveNegativeName: 
    negativeButton: 
    positiveButton: 
    altNegativeButton: 
    altPositiveButton: 
    gravity: 1
    dead: .5
    sensitivity: 1
    snap: 1
    invert: 0
    type: 2
    axis: 0
    joyNum: 0
  - serializedVersion: 3
    m_Name: Vertical
    descriptiveName: 
    descriptiveNegativeName: 
    negativeButton: 
    positiveButton: 
    altNegativeButton: 
    altPositiveButton: 
    gravity: 1
    dead: .5
    sensitivity: 1
    snap: 1
    invert: 1
    type: 2
    axis: 1
    joyNum: 0
  - serializedVersion: 3
    m_Name: Sneak
    descriptiveName: 
    descriptiveNegativeName: 
    negativeButton: 
    positiveButton: joystick button 0
    altNegativeButton: 
    altPositiveButton: joystick button 16
    gravity: 1000
    dead: .00100000005
    sensitivity: 1000
    snap: 1
    invert: 0
    type: 2
    axis: 0
    joyNum: 0
  - serializedVersion: 3
    m_Name: Attract
    descriptiveName: 
    descriptiveNegativeName: 
    negativeButton: 
    positiveButton: joystick button 1
    altNegativeButton: 
    altPositiveButton: 
    gravity: 1000
    dead: .00100000005
    sensitivity: 1000
    snap: 1
    invert: 0
    type: 2
    axis: 0
    joyNum: 0
  - serializedVersion: 3
    m_Name: Switch
    descriptiveName: 
    descriptiveNegativeName: 
    negativeButton: 
    positiveButton: joystick button 2
    altNegativeButton: 
    altPositiveButton: joystick button 18
    gravity: 1000
    dead: .00100000005
    sensitivity: 1000
    snap: 1
    invert: 0
    type: 2
    axis: 0
    joyNum: 0
  - serializedVersion: 3
    m_Name: Jump
    descriptiveName: 
    descriptiveNegativeName: 
    negativeButton: 
    positiveButton: space
    altNegativeButton: 
    altPositiveButton: 
    gravity: 1000
    dead: .00100000005
    sensitivity: 1000
    snap: 0
    invert: 0
    type: 0
    axis: 0
    joyNum: 0
